0.015 0
0.045 0
0.075 0
0.105 0
0.135 0
0.165 0
0.195 0
0.225 0
0.255 0
0.285 0
0.315 0
0.345 0
0.375 0
0.405 0
0.435 0
0.465 0
0.495 0
0.525 0
0.555 0
0.585 0
0.615 0
0.645 0
0.675 0
0.705 0
0.735 0
0.765 0
0.795 0
0.825 0
0.855 0
0.885 0
0.915 0
0.945 0
0.975 0
1.005 0
1.035 0
1.065 0
1.095 0
1.125 0
1.155 0
1.185 0
1.215 0
1.245 0
1.275 0
1.305 0
1.335 0
1.365 0
1.395 0
1.425 0.00086469659
1.455 0.0046327424
1.485 0.030824888
1.515 0.13618292
1.545 0.42369319
1.575 1.0695731
1.605 2.2029318
1.635 3.8870057
1.665 5.7868499
1.695 7.5249264
1.725 8.7903081
1.755 9.2921984
1.785 8.9768731
1.815 8.1271805
1.845 6.9568804
1.875 5.6024633
1.905 4.3520738
1.935 3.262561
1.965 2.3935972
1.995 1.7366744
2.025 1.2219472
2.055 0.87023095
2.085 0.60503289
2.115 0.42947226
2.145 0.31776114
2.175 0.21740236
2.205 0.15752117
2.235 0.12060528
2.265 0.090359214
2.295 0.071664271
2.325 0.059741306
2.355 0.050497675
2.385 0.046638107
2.415 0.040553686
2.445 0.039039464
2.475 0.037268228
2.505 0.039160818
2.535 0.038652573
2.565 0.041601495
2.595 0.04901131
2.625 0.050956215
2.655 0.054911119
2.685 0.061145858
2.715 0.063599282
2.745 0.074967345
2.775 0.085698816
2.805 0.092298012
2.835 0.10668505
2.865 0.12512274
2.895 0.13678527
2.925 0.14793111
2.955 0.17305164
2.985 0.19796701
3.015 0.22327154
3.045 0.24917062
3.075 0.27874753
3.105 0.29625952
3.135 0.33538013
3.165 0.36488632
3.195 0.40197527
3.225 0.43173206
3.255 0.46135755
3.285 0.50869481
3.315 0.53646769
3.345 0.57315053
3.375 0.6155236
3.405 0.65359224
3.435 0.67342031
3.465 0.7166192
3.495 0.76296247
3.525 0.80483653
3.555 0.83171847
3.585 0.86325273
3.615 0.91176086
3.645 0.94602516
3.675 0.98272268
3.705 1.0267567
3.735 1.0605459
3.765 1.1049077
3.795 1.1430835
3.825 1.1938578
3.855 1.2342149
3.885 1.2887637
3.915 1.329581
3.945 1.3583674
3.975 1.4021238
4.005 1.4447528
4.035 1.4967931
4.065 1.5364145
4.095 1.5868191
4.125 1.6064099
4.155 1.6364932
4.185 1.6687821
4.215 1.6726552
4.245 1.6771822
4.275 1.6593225
4.305 1.6284851
4.335 1.579756
4.365 1.5100563
4.395 1.4534065
4.425 1.3779562
4.455 1.2849889
4.485 1.2034764
4.515 1.0910896
4.545 1.0099438
4.575 0.92888778
4.605 0.85052618
4.635 0.79007222
4.665 0.7346756
4.695 0.69350806
4.725 0.65763686
4.755 0.63416575
4.785 0.61174501
4.815 0.59745906
4.845 0.58928124
4.875 0.58881083
4.905 0.59193279
4.935 0.59707547
4.965 0.60009924
4.995 0.60951925
5.025 0.62167206
5.055 0.6293982
5.085 0.64425057
5.115 0.65738991
5.145 0.66769282
5.175 0.6816883
5.205 0.69572567
5.235 0.70428702
5.265 0.71181481
5.295 0.72669998
5.325 0.74750497
5.355 0.76013541
5.385 0.76998069
5.415 0.7836615
5.445 0.79787327
5.475 0.80382373
5.505 0.82493063
5.535 0.8317192
5.565 0.84770048
5.595 0.86297902
5.625 0.87837706
5.655 0.88918583
5.685 0.89567561
5.715 0.91505651
5.745 0.93404656
5.775 0.94123899
5.805 0.9617738
5.835 0.97924433
5.865 0.99649879
5.895 1.0115207
5.925 1.0282692
5.955 1.033256
5.985 1.0546198
6.015 1.0695914
6.045 1.1006874
6.075 1.1186383
6.105 1.1291695
6.135 1.1501567
6.165 1.1544235
6.195 1.1656317
6.225 1.1840868
6.255 1.1953515
6.285 1.208767
6.315 1.2145659
6.345 1.2265188
6.375 1.2390335
6.405 1.245076
6.435 1.2543653
6.465 1.2597411
6.495 1.2496751
6.525 1.253008
6.555 1.2452706
6.585 1.245056
6.615 1.2410251
6.645 1.233249
6.675 1.2228678
6.705 1.2110865
6.735 1.1989047
6.765 1.1864164
6.795 1.1641021
6.825 1.1459591
6.855 1.1344285
6.885 1.1141849
6.915 1.0936256
6.945 1.0788597
6.975 1.0562171
7.005 1.0359585
7.035 1.0168111
7.065 1.006228
7.095 0.98615371
7.125 0.97158536
7.155 0.96036946
7.185 0.94531817
7.215 0.9356303
7.245 0.92617183
7.275 0.91758619
7.305 0.91357347
7.335 0.90638203
7.365 0.90364261
7.395 0.90248883
7.425 0.90463427
7.455 0.89913368
7.485 0.90191857
7.515 0.90091424
7.545 0.90253023
7.575 0.90008991
7.605 0.90364272
7.635 0.90454377
7.665 0.90799568
7.695 0.90753599
7.725 0.90720173
7.755 0.91349599
7.785 0.91459808
7.815 0.91859357
7.845 0.92119364
7.875 0.92538866
7.905 0.93020265
7.935 0.93543133
7.965 0.9416759
7.995 0.94410041
8.025 0.94964182
8.055 0.94890969
8.085 0.95176999
8.115 0.95996831
8.145 0.96973439
8.175 0.97211239
8.205 0.97561089
8.235 0.97827561
8.265 0.98979938
8.295 0.99316733
8.325 0.99690224
8.355 1.0052529
8.385 1.0085918
8.415 1.0082753
8.445 1.0147047
8.475 1.0170823
8.505 1.0237431
8.535 1.0281312
8.565 1.0281232
8.595 1.0292765
8.625 1.0285546
8.655 1.0273639
8.685 1.0336607
8.715 1.034525
8.745 1.0348008
8.775 1.0329599
8.805 1.0301959
8.835 1.0337661
8.865 1.0330508
8.895 1.0358349
8.925 1.0287438
8.955 1.0328228
8.985 1.0359225

