0.016666667 0
0.05 0
0.083333333 0
0.11666667 0
0.15 0
0.18333333 0
0.21666667 0
0.25 0
0.28333333 0
0.31666667 0
0.35 0
0.38333333 0
0.41666667 0
0.45 0
0.48333333 0
0.51666667 0
0.55 0
0.58333333 0
0.61666667 0
0.65 0
0.68333333 0
0.71666667 0
0.75 0
0.78333333 0
0.81666667 0
0.85 0
0.88333333 0
0.91666667 0
0.95 0
0.98333333 0
1.0166667 0
1.05 0
1.0833333 0
1.1166667 0
1.15 0
1.1833333 0
1.2166667 0
1.25 0
1.2833333 0
1.3166667 0
1.35 0
1.3833333 0
1.4166667 0
1.45 0
1.4833333 0
1.5166667 0
1.55 0
1.5833333 0
1.6166667 0
1.65 0
1.6833333 2.0099466e-05
1.7166667 0.00012562214
1.75 0.00069739678
1.7833333 0.003644384
1.8166667 0.014798183
1.85 0.046029206
1.8833333 0.12474052
1.9166667 0.28593226
1.95 0.56576623
1.9833333 0.99419582
2.0166667 1.5562104
2.05 2.2068499
2.0833333 2.8342744
2.1166667 3.3946271
2.15 3.7854404
2.1833333 3.9914552
2.2166667 3.9935567
2.25 3.8379225
2.2833333 3.5762811
2.3166667 3.2401174
2.35 2.8802156
2.3833333 2.5171064
2.4166667 2.1790625
2.45 1.8746547
2.4833333 1.6126126
2.5166667 1.394741
2.55 1.2047417
2.5833333 1.0554954
2.6166667 0.93305782
2.65 0.83096171
2.6833333 0.74792838
2.7166667 0.6817871
2.75 0.62894239
2.7833333 0.58578494
2.8166667 0.5539403
2.85 0.52932401
2.8833333 0.50914073
2.9166667 0.49481808
2.95 0.48466752
2.9833333 0.47728901
3.0166667 0.47320503
3.05 0.47202236
3.0833333 0.47680666
3.1166667 0.47733338
3.15 0.48252682
3.1833333 0.49058311
3.2166667 0.49564674
3.25 0.50832687
3.2833333 0.52063819
3.3166667 0.53051377
3.35 0.54397798
3.3833333 0.56044829
3.4166667 0.57522405
3.45 0.59070259
3.4833333 0.6087179
3.5166667 0.62789301
3.55 0.64647898
3.5833333 0.66520383
3.6166667 0.68573988
3.65 0.7066537
3.6833333 0.72932112
3.7166667 0.75174769
3.75 0.77740838
3.7833333 0.79923884
3.8166667 0.82816937
3.85 0.85171359
3.8833333 0.88414845
3.9166667 0.91011068
3.95 0.9435467
3.9833333 0.97551641
4.0166667 1.0079091
4.05 1.0431701
4.0833333 1.0774695
4.1166667 1.1142578
4.15 1.151838
4.1833333 1.1849936
4.2166667 1.2225843
4.25 1.2585391
4.2833333 1.2925636
4.3166667 1.3273244
4.35 1.3585483
4.3833333 1.3838572
4.4166667 1.4107479
4.45 1.4348644
4.4833333 1.4539507
4.5166667 1.4702898
4.55 1.4799929
4.5833333 1.4822657
4.6166667 1.4795689
4.65 1.4650821
4.6833333 1.4431637
4.7166667 1.4123785
4.75 1.3779162
4.7833333 1.3358057
4.8166667 1.2873307
4.85 1.2398736
4.8833333 1.1903935
4.9166667 1.1414475
4.95 1.0970931
4.9833333 1.0536335
5.0166667 1.0164232
5.05 0.98537409
5.0833333 0.95631226
5.1166667 0.93423916
5.15 0.91468484
5.1833333 0.90119875
5.2166667 0.88825677
5.25 0.88143101
5.2833333 0.87414616
5.3166667 0.86983525
5.35 0.86667291
5.3833333 0.86633621
5.4166667 0.86680596
5.45 0.86927318
5.4833333 0.87214787
5.5166667 0.87453705
5.55 0.87820671
5.5833333 0.88165175
5.6166667 0.88636609
5.65 0.89258255
5.6833333 0.89698627
5.7166667 0.90523612
5.75 0.90988789
5.7833333 0.91521633
5.8166667 0.9235296
5.85 0.9290341
5.8833333 0.93896785
5.9166667 0.94494497
5.95 0.94987855
5.9833333 0.95855184
6.0166667 0.96582034
6.05 0.97375783
6.0833333 0.98068663
6.1166667 0.98730193
6.15 0.99544301
6.1833333 1.0021629
6.2166667 1.0101702
6.25 1.0170215
6.2833333 1.0250052
6.3166667 1.0324017
6.35 1.0420692
6.3833333 1.0507738
6.4166667 1.0578239
6.45 1.0681655
6.4833333 1.0772053
6.5166667 1.0858511
6.55 1.0933741
6.5833333 1.1035398
6.6166667 1.1086056
6.65 1.1157595
6.6833333 1.1211297
6.7166667 1.1263997
6.75 1.1293275
6.7833333 1.1309125
6.8166667 1.1327245
6.85 1.1319
6.8833333 1.1301945
6.9166667 1.1280114
6.95 1.1228745
6.9833333 1.1203148
7.0166667 1.1119331
7.05 1.1057168
7.0833333 1.0961479
7.1166667 1.0868144
7.15 1.0770683
7.1833333 1.064675
7.2166667 1.0530372
7.25 1.0429798
7.2833333 1.0301142
7.3166667 1.0190293
7.35 1.007965
7.3833333 0.9968167
7.4166667 0.98667355
7.45 0.97708311
7.4833333 0.96924109
7.5166667 0.9615962
7.55 0.95594863
7.5833333 0.95021789
7.6166667 0.94657889
7.65 0.94168637
7.6833333 0.93944397
7.7166667 0.93834422
7.75 0.93729497
7.7833333 0.93602617
7.8166667 0.9384767
7.85 0.93801591
7.8833333 0.93934068
7.9166667 0.94089391
7.95 0.94219798
7.9833333 0.94470038
8.0166667 0.94719202
8.05 0.9504837
8.0833333 0.95272667
8.1166667 0.95444263
8.15 0.95811284
8.1833333 0.9600371
8.2166667 0.96253811
8.25 0.96546615
8.2833333 0.96881694
8.3166667 0.97087759
8.35 0.97404551
8.3833333 0.97698252
8.4166667 0.98029277
8.45 0.98340004
8.4833333 0.98394213
8.5166667 0.98694299
8.55 0.9896339
8.5833333 0.99152238
8.6166667 0.99409079
8.65 0.99555197
8.6833333 0.9980133
8.7166667 1.0004342
8.75 1.0006085
8.7833333 1.0038481
8.8166667 1.0055626
8.85 1.0059824
8.8833333 1.0079207
8.9166667 1.0090964
8.95 1.0101765
8.9833333 1.0108427
9.0166667 1.0115982
9.05 1.0123802
9.0833333 1.0113826
9.1166667 1.0109371
9.15 1.0116828
9.1833333 1.0100209
9.2166667 1.0094683
9.25 1.0083115
9.2833333 1.0070333
9.3166667 1.0033927
9.35 1.002705
9.3833333 0.99935643
9.4166667 0.9973127
9.45 0.99455573
9.4833333 0.99145088
9.5166667 0.98961146
9.55 0.98629569
9.5833333 0.98345038
9.6166667 0.98065709
9.65 0.97783208
9.6833333 0.97701401
9.7166667 0.97415002
9.75 0.97244481
9.7833333 0.97154468
9.8166667 0.96818282
9.85 0.96178928
9.8833333 0.95176465
9.9166667 0.94245081
9.95 0.93237039
9.9833333 0.92314081

